[gd_scene load_steps=3 format=2]

[ext_resource path="res://scenes/engine/camera/camera.gd" type="Script" id=1]
[ext_resource path="res://scenes/gui/ui/UI.tscn" type="PackedScene" id=2]







[node name="Camera" type="Camera2D"]
offset = Vector2( 16, 16 )
current = true
smoothing_enabled = true
smoothing_speed = 10.0
drag_margin_left = 0.0
drag_margin_top = 0.0
drag_margin_right = 0.0
drag_margin_bottom = 0.0
script = ExtResource( 1 )

[node name="UI" parent="." instance=ExtResource( 2 )]
